{
    "categories": [
        {
            "id": 0,
            "sort": 0,
            "name_pl": "Wszystkie",
            "name_en": "All",
            "slug": "all"
        },
        {
            "id": 1,
            "sort": 1,
            "name_pl": "Woda",
            "name_en": "Water",
            "slug": "water"
        },
        {
            "id": 2,
            "sort": 2,
            "name_pl": "Segregacja",
            "name_en": "Sorting",
            "slug": "sorting"
        },
        {
            "id": 3,
            "sort": 3,
            "name_pl": "Wege",
            "name_en": "Wege",
            "slug": "wege"
        }
    ],
    "articles": [
        {
            "id": 0,
            "category_id": 0,
            "sort": 0,
            "photo_url": "https://media.fshoq.com/images/233/abandoned-factory-hall-with-green-grass-and-bushes-233-small.jpg",
            "title_en": "Check the tightness of the pipes, hoses, taps and fittings",
            "description_en": "Leaks outside the home may not seem so bad because they are not so visible. But they can be as wasteful as room leaks. Check often so that they do not drip. Use hose washers on the connectors and hose connections to eliminate leaks.",
            "url_en": "https://www.google.com",
            "title_pl": "Sprawdź szczelność rur, węży, kranów i złączek",
            "description_pl": "Wycieki poza domem mogą nie wydawać się tak złe, ponieważ nie są tak widoczne. Ale mogą być tak samo marnotrawne jak wycieki w pomieszczeniach. Sprawdzaj często, aby nie kapały. Użyć podkładek wężów na króćcach i połączeniach węża, aby wyeliminować nieszczelności.",
            "url_pl": "https://www.google.pl"
        },
        {
            "id": 1,
            "category_id": 0,
            "sort": 0,
            "photo_url": "https://media.fshoq.com/images/233/abandoned-factory-hall-with-green-grass-and-bushes-233-small.jpg",
            "title_en": "Check the tightness of the pipes, hoses, taps and fittings",
            "description_en": "Leaks outside the home may not seem so bad because they are not so visible. But they can be as wasteful as room leaks. Check often so that they do not drip. Use hose washers on the connectors and hose connections to eliminate leaks.",
            "url_en": "https://www.google.com",
            "title_pl": "Sprawdź szczelność rur, węży, kranów i złączek",
            "description_pl": "Wycieki poza domem mogą nie wydawać się tak złe, ponieważ nie są tak widoczne. Ale mogą być tak samo marnotrawne jak wycieki w pomieszczeniach. Sprawdzaj często, aby nie kapały. Użyć podkładek wężów na króćcach i połączeniach węża, aby wyeliminować nieszczelności.",
            "url_pl": "https://www.google.pl"
        },
        {
            "id": 2,
            "category_id": 0,
            "sort": 0,
            "photo_url": "https://media.fshoq.com/images/233/abandoned-factory-hall-with-green-grass-and-bushes-233-small.jpg",
            "title_en": "Check the tightness of the pipes, hoses, taps and fittings",
            "description_en": "Leaks outside the home may not seem so bad because they are not so visible. But they can be as wasteful as room leaks. Check often so that they do not drip. Use hose washers on the connectors and hose connections to eliminate leaks.",
            "url_en": "https://www.google.com",
            "title_pl": "Sprawdź szczelność rur, węży, kranów i złączek",
            "description_pl": "Wycieki poza domem mogą nie wydawać się tak złe, ponieważ nie są tak widoczne. Ale mogą być tak samo marnotrawne jak wycieki w pomieszczeniach. Sprawdzaj często, aby nie kapały. Użyć podkładek wężów na króćcach i połączeniach węża, aby wyeliminować nieszczelności.",
            "url_pl": "https://www.google.pl"
        },
        {
            "id": 3,
            "category_id": 1,
            "sort": 0,
            "photo_url": "https://media.fshoq.com/images/233/abandoned-factory-hall-with-green-grass-and-bushes-233-small.jpg",
            "title_en": "Check the tightness of the pipes, hoses, taps and fittings",
            "description_en": "Leaks outside the home may not seem so bad because they are not so visible. But they can be as wasteful as room leaks. Check often so that they do not drip. Use hose washers on the connectors and hose connections to eliminate leaks.",
            "url_en": "https://www.google.com",
            "title_pl": "Sprawdź szczelność rur, węży, kranów i złączek",
            "description_pl": "Wycieki poza domem mogą nie wydawać się tak złe, ponieważ nie są tak widoczne. Ale mogą być tak samo marnotrawne jak wycieki w pomieszczeniach. Sprawdzaj często, aby nie kapały. Użyć podkładek wężów na króćcach i połączeniach węża, aby wyeliminować nieszczelności.",
            "url_pl": "https://www.google.pl"
        },
        {
            "id": 4,
            "category_id": 1,
            "sort": 0,
            "photo_url": "https://media.fshoq.com/images/233/abandoned-factory-hall-with-green-grass-and-bushes-233-small.jpg",
            "title_en": "Check the tightness of the pipes, hoses, taps and fittings",
            "description_en": "Leaks outside the home may not seem so bad because they are not so visible. But they can be as wasteful as room leaks. Check often so that they do not drip. Use hose washers on the connectors and hose connections to eliminate leaks.",
            "url_en": "https://www.google.com",
            "title_pl": "Sprawdź szczelność rur, węży, kranów i złączek",
            "description_pl": "Wycieki poza domem mogą nie wydawać się tak złe, ponieważ nie są tak widoczne. Ale mogą być tak samo marnotrawne jak wycieki w pomieszczeniach. Sprawdzaj często, aby nie kapały. Użyć podkładek wężów na króćcach i połączeniach węża, aby wyeliminować nieszczelności.",
            "url_pl": "https://www.google.pl"
        },
        {
            "id": 5,
            "category_id": 2,
            "sort": 0,
            "photo_url": "https://media.fshoq.com/images/233/abandoned-factory-hall-with-green-grass-and-bushes-233-small.jpg",
            "title_en": "Check the tightness of the pipes, hoses, taps and fittings",
            "description_en": "Leaks outside the home may not seem so bad because they are not so visible. But they can be as wasteful as room leaks. Check often so that they do not drip. Use hose washers on the connectors and hose connections to eliminate leaks.",
            "url_en": "https://www.google.com",
            "title_pl": "Sprawdź szczelność rur, węży, kranów i złączek",
            "description_pl": "Wycieki poza domem mogą nie wydawać się tak złe, ponieważ nie są tak widoczne. Ale mogą być tak samo marnotrawne jak wycieki w pomieszczeniach. Sprawdzaj często, aby nie kapały. Użyć podkładek wężów na króćcach i połączeniach węża, aby wyeliminować nieszczelności.",
            "url_pl": "https://www.google.pl"
        },
        {
            "id": 6,
            "category_id": 3,
            "sort": 0,
            "photo_url": "https://media.fshoq.com/images/233/abandoned-factory-hall-with-green-grass-and-bushes-233-small.jpg",
            "title_en": "Check the tightness of the pipes, hoses, taps and fittings",
            "description_en": "Leaks outside the home may not seem so bad because they are not so visible. But they can be as wasteful as room leaks. Check often so that they do not drip. Use hose washers on the connectors and hose connections to eliminate leaks.",
            "url_en": "https://www.google.com",
            "title_pl": "Sprawdź szczelność rur, węży, kranów i złączek",
            "description_pl": "Wycieki poza domem mogą nie wydawać się tak złe, ponieważ nie są tak widoczne. Ale mogą być tak samo marnotrawne jak wycieki w pomieszczeniach. Sprawdzaj często, aby nie kapały. Użyć podkładek wężów na króćcach i połączeniach węża, aby wyeliminować nieszczelności.",
            "url_pl": "https://www.google.pl"
        },
        {
            "id": 7,
            "category_id": 3,
            "sort": 0,
            "photo_url": "https://media.fshoq.com/images/233/abandoned-factory-hall-with-green-grass-and-bushes-233-small.jpg",
            "title_en": "Check the tightness of the pipes, hoses, taps and fittings",
            "description_en": "Leaks outside the home may not seem so bad because they are not so visible. But they can be as wasteful as room leaks. Check often so that they do not drip. Use hose washers on the connectors and hose connections to eliminate leaks.",
            "url_en": "https://www.google.com",
            "title_pl": "Sprawdź szczelność rur, węży, kranów i złączek",
            "description_pl": "Wycieki poza domem mogą nie wydawać się tak złe, ponieważ nie są tak widoczne. Ale mogą być tak samo marnotrawne jak wycieki w pomieszczeniach. Sprawdzaj często, aby nie kapały. Użyć podkładek wężów na króćcach i połączeniach węża, aby wyeliminować nieszczelności.",
            "url_pl": "https://www.google.pl"
        },
        {
            "id": 8,
            "category_id": 3,
            "sort": 0,
            "photo_url": "https://media.fshoq.com/images/233/abandoned-factory-hall-with-green-grass-and-bushes-233-small.jpg",
            "title_en": "Check the tightness of the pipes, hoses, taps and fittings",
            "description_en": "Leaks outside the home may not seem so bad because they are not so visible. But they can be as wasteful as room leaks. Check often so that they do not drip. Use hose washers on the connectors and hose connections to eliminate leaks.",
            "url_en": "https://www.google.com",
            "title_pl": "Sprawdź szczelność rur, węży, kranów i złączek",
            "description_pl": "Wycieki poza domem mogą nie wydawać się tak złe, ponieważ nie są tak widoczne. Ale mogą być tak samo marnotrawne jak wycieki w pomieszczeniach. Sprawdzaj często, aby nie kapały. Użyć podkładek wężów na króćcach i połączeniach węża, aby wyeliminować nieszczelności.",
            "url_pl": "https://www.google.pl"
        },
        {
            "id": 2,
            "category_id": 3,
            "sort": 0,
            "photo_url": "https://media.fshoq.com/images/233/abandoned-factory-hall-with-green-grass-and-bushes-233-small.jpg",
            "title_en": "Check the tightness of the pipes, hoses, taps and fittings",
            "description_en": "Leaks outside the home may not seem so bad because they are not so visible. But they can be as wasteful as room leaks. Check often so that they do not drip. Use hose washers on the connectors and hose connections to eliminate leaks.",
            "url_en": "https://www.google.com",
            "title_pl": "Sprawdź szczelność rur, węży, kranów i złączek",
            "description_pl": "Wycieki poza domem mogą nie wydawać się tak złe, ponieważ nie są tak widoczne. Ale mogą być tak samo marnotrawne jak wycieki w pomieszczeniach. Sprawdzaj często, aby nie kapały. Użyć podkładek wężów na króćcach i połączeniach węża, aby wyeliminować nieszczelności.",
            "url_pl": "https://www.google.pl"
        }
    ]
}