{
    "android": {
      "version_code": "1",
      "version_name": "1.0.0"
    },
    "ios": {
      "version_code": "1",
      "version_name": "1.0.0",
      "title_text_pl": "Nowa wersja!",
      "description_text_pl": "Pojawiła się nowa wersja aplikacji, wprowadziliśmy szereg poprawek i dodaliśmy nowe wyzwania, możesz pobrać ją ze sklepu.",
      "image_url_pl": "",
      "title_text_en": "New version!",
      "description_text_en": "A new version of the application has appeared, we have made a number of fixes and added new challenges, you can download it from the store.",
      "image_url_en": "",
      "force_update": false
    }
}